{
"instructions_readme": "1) Open Chrome, 2) go to chrome://tracing, 3) click Load, 4) navigate to this file.",
"traceEvents":[
{ "cat":"", "pid":1, "tid":0, "ts":0, "ph":"M", "name":"process_name", "args": { "name":"tundra" } }
,{ "pid":1, "tid":0, "ts":1653557719562797, "dur":261, "ph":"X", "name": "DriverCheckDagSignatures",  "args": { "durationMS":0, "detail":"" }}
,{ "pid":1, "tid":0, "ts":1653557719563058, "dur":77, "ph":"X", "name": "DriverInitData",  "args": { "durationMS":0, "detail":"" }}
,{ "pid":1, "tid":0, "ts":1653557719563390, "dur":172, "ph":"X", "name": "Tundra",  "args": { "durationMS":0, "detail":"PrepareNodes" }}
,{ "pid":1, "tid":0, "ts":1653557719563562, "dur":2, "ph":"X", "name": "Tundra",  "args": { "durationMS":0, "detail":"RemoveStaleOutputs" }}
,{ "pid":1, "tid":0, "ts":1653557719563564, "dur":195, "ph":"X", "name": "Tundra",  "args": { "durationMS":0, "detail":"BuildQueueInit" }}
,{ "pid":1, "tid":0, "ts":1653557724395841, "dur":179, "ph":"X", "name": "JoinBuildThread",  "args": { "durationMS":0, "detail":"" }}
,{ "pid":1, "tid":0, "ts":1653557724396046, "dur":96, "ph":"X", "name": "JoinBuildThread",  "args": { "durationMS":0, "detail":"" }}
,{ "pid":1, "tid":0, "ts":1653557724396151, "dur":10, "ph":"X", "name": "JoinBuildThread",  "args": { "durationMS":0, "detail":"" }}
,{ "pid":1, "tid":0, "ts":1653557724396170, "dur":8, "ph":"X", "name": "JoinBuildThread",  "args": { "durationMS":0, "detail":"" }}
,{ "pid":1, "tid":0, "ts":1653557724396185, "dur":3, "ph":"X", "name": "JoinBuildThread",  "args": { "durationMS":0, "detail":"" }}
,{ "pid":1, "tid":0, "ts":1653557724396194, "dur":4, "ph":"X", "name": "JoinBuildThread",  "args": { "durationMS":0, "detail":"" }}
,{ "pid":1, "tid":0, "ts":1653557724396200, "dur":3, "ph":"X", "name": "JoinBuildThread",  "args": { "durationMS":0, "detail":"" }}
,{ "pid":1, "tid":0, "ts":1653557724396208, "dur":4, "ph":"X", "name": "JoinBuildThread",  "args": { "durationMS":0, "detail":"" }}
,{ "pid":1, "tid":0, "ts":1653557724396326, "dur":4, "ph":"X", "name": "JoinBuildThread",  "args": { "durationMS":0, "detail":"" }}
,{ "pid":1, "tid":0, "ts":1653557724396439, "dur":3, "ph":"X", "name": "JoinBuildThread",  "args": { "durationMS":0, "detail":"" }}
,{ "pid":1, "tid":0, "ts":1653557724396447, "dur":3, "ph":"X", "name": "JoinBuildThread",  "args": { "durationMS":0, "detail":"" }}
,{ "pid":1, "tid":0, "ts":1653557724396455, "dur":3, "ph":"X", "name": "JoinBuildThread",  "args": { "durationMS":0, "detail":"" }}
,{ "pid":1, "tid":0, "ts":1653557724396462, "dur":0, "ph":"X", "name": "SharedResourceDestroy",  "args": { "durationMS":0, "detail":"" }}
,{ "pid":1, "tid":0, "ts":1653557724396472, "dur":849, "ph":"X", "name": "Tundra",  "args": { "durationMS":1, "detail":"Write AllBuiltNodes" }}
,{ "pid":1, "tid":1, "ts":1653557719563597, "dur":4832273, "ph":"X", "name": "WaitingForWork", "cname":"thread_state_sleeping",  "args": { "durationMS":4832, "detail":"" }}
,{ "pid":1, "tid":1, "ts":1653557724395875, "dur":6, "ph":"X", "name": "Exiting",  "args": { "durationMS":0, "detail":"BuildLoop" }}
,{ "pid":1, "tid":2, "ts":1653557719563613, "dur":4832481, "ph":"X", "name": "WaitingForWork", "cname":"thread_state_sleeping",  "args": { "durationMS":4832, "detail":"" }}
,{ "pid":1, "tid":2, "ts":1653557724396104, "dur":12, "ph":"X", "name": "Exiting",  "args": { "durationMS":0, "detail":"BuildLoop" }}
,{ "pid":1, "tid":3, "ts":1653557719563682, "dur":4832293, "ph":"X", "name": "WaitingForWork", "cname":"thread_state_sleeping",  "args": { "durationMS":4832, "detail":"" }}
,{ "pid":1, "tid":3, "ts":1653557724396017, "dur":23, "ph":"X", "name": "Exiting",  "args": { "durationMS":0, "detail":"BuildLoop" }}
,{ "pid":1, "tid":4, "ts":1653557719563623, "dur":4832529, "ph":"X", "name": "WaitingForWork", "cname":"thread_state_sleeping",  "args": { "durationMS":4833, "detail":"" }}
,{ "pid":1, "tid":4, "ts":1653557724396160, "dur":8, "ph":"X", "name": "Exiting",  "args": { "durationMS":0, "detail":"BuildLoop" }}
,{ "pid":1, "tid":5, "ts":1653557719563663, "dur":4832408, "ph":"X", "name": "WaitingForWork", "cname":"thread_state_sleeping",  "args": { "durationMS":4832, "detail":"" }}
,{ "pid":1, "tid":5, "ts":1653557724396090, "dur":7, "ph":"X", "name": "Exiting",  "args": { "durationMS":0, "detail":"BuildLoop" }}
,{ "pid":1, "tid":6, "ts":1653557719563698, "dur":4832341, "ph":"X", "name": "WaitingForWork", "cname":"thread_state_sleeping",  "args": { "durationMS":4832, "detail":"" }}
,{ "pid":1, "tid":6, "ts":1653557724396055, "dur":12, "ph":"X", "name": "Exiting",  "args": { "durationMS":0, "detail":"BuildLoop" }}
,{ "pid":1, "tid":7, "ts":1653557719563715, "dur":4832297, "ph":"X", "name": "WaitingForWork", "cname":"thread_state_sleeping",  "args": { "durationMS":4832, "detail":"" }}
,{ "pid":1, "tid":7, "ts":1653557724396040, "dur":35, "ph":"X", "name": "Exiting",  "args": { "durationMS":0, "detail":"BuildLoop" }}
,{ "pid":1, "tid":8, "ts":1653557719563745, "dur":4820216, "ph":"X", "name": "WaitingForWork", "cname":"thread_state_sleeping",  "args": { "durationMS":4820, "detail":"" }}
,{ "pid":1, "tid":8, "ts":1653557724383968, "dur":494, "ph":"X", "name": "CheckInputSignature",  "args": { "durationMS":0, "detail":"Copy Additional C++ File /Users/kelammari/Desktop/popcornmaker/Library/Il2cppBuildCache/iOS/il2cppOutput/UnityICallRegistration.cpp" }}
,{ "pid":1, "tid":8, "ts":1653557724384534, "dur":11228, "ph":"X", "name": "Copy",  "args": { "durationMS":11, "detail":"Additional C++ File /Users/kelammari/Desktop/popcornmaker/Library/Il2cppBuildCache/iOS/il2cppOutput/UnityICallRegistration.cpp" }}
,{ "pid":1, "tid":8, "ts":1653557724395802, "dur":5, "ph":"X", "name": "CheckInputSignature",  "args": { "durationMS":0, "detail":"all_tundra_nodes" }}
,{ "pid":1, "tid":8, "ts":1653557724395823, "dur":93, "ph":"X", "name": "WaitingForWork", "cname":"thread_state_sleeping",  "args": { "durationMS":0, "detail":"" }}
,{ "pid":1, "tid":8, "ts":1653557724395916, "dur":2, "ph":"X", "name": "Exiting",  "args": { "durationMS":0, "detail":"BuildLoop" }}
,{ "pid":1, "tid":9, "ts":1653557719563731, "dur":67, "ph":"X", "name": "WaitingForWork", "cname":"thread_state_sleeping",  "args": { "durationMS":0, "detail":"" }}
,{ "pid":1, "tid":9, "ts":1653557719563812, "dur":2197, "ph":"X", "name": "CheckInputSignature",  "args": { "durationMS":2, "detail":"Il2Cpp /Users/kelammari/Desktop/popcornmaker/Library/Il2cppBuildCache/iOS/il2cppOutput" }}
,{ "pid":1, "tid":9, "ts":1653557719566435, "dur":4817391, "ph":"X", "name": "Il2Cpp",  "args": { "durationMS":4817, "detail":"/Users/kelammari/Desktop/popcornmaker/Library/Il2cppBuildCache/iOS/il2cppOutput" }}
,{ "pid":1, "tid":9, "ts":1653557724383905, "dur":105, "ph":"X", "name": "CheckInputSignature",  "args": { "durationMS":0, "detail":"Copy Additional C++ File /Users/kelammari/Desktop/popcornmaker/Library/Il2cppBuildCache/iOS/il2cppOutput/UnityClassRegistration.cpp" }}
,{ "pid":1, "tid":9, "ts":1653557724384039, "dur":11523, "ph":"X", "name": "Copy",  "args": { "durationMS":12, "detail":"Additional C++ File /Users/kelammari/Desktop/popcornmaker/Library/Il2cppBuildCache/iOS/il2cppOutput/UnityClassRegistration.cpp" }}
,{ "pid":1, "tid":9, "ts":1653557724395656, "dur":259, "ph":"X", "name": "WaitingForWork", "cname":"thread_state_sleeping",  "args": { "durationMS":0, "detail":"" }}
,{ "pid":1, "tid":9, "ts":1653557724395915, "dur":2, "ph":"X", "name": "Exiting",  "args": { "durationMS":0, "detail":"BuildLoop" }}
,{ "pid":1, "tid":10, "ts":1653557719563833, "dur":4832298, "ph":"X", "name": "WaitingForWork", "cname":"thread_state_sleeping",  "args": { "durationMS":4832, "detail":"" }}
,{ "pid":1, "tid":10, "ts":1653557724396145, "dur":7, "ph":"X", "name": "Exiting",  "args": { "durationMS":0, "detail":"BuildLoop" }}
,{ "pid":1, "tid":11, "ts":1653557719563754, "dur":4832302, "ph":"X", "name": "WaitingForWork", "cname":"thread_state_sleeping",  "args": { "durationMS":4832, "detail":"" }}
,{ "pid":1, "tid":11, "ts":1653557724396067, "dur":10, "ph":"X", "name": "Exiting",  "args": { "durationMS":0, "detail":"BuildLoop" }}
,{ "pid":1, "tid":12, "ts":1653557719563765, "dur":4832345, "ph":"X", "name": "WaitingForWork", "cname":"thread_state_sleeping",  "args": { "durationMS":4832, "detail":"" }}
,{ "pid":1, "tid":12, "ts":1653557724396123, "dur":13, "ph":"X", "name": "Exiting",  "args": { "durationMS":0, "detail":"BuildLoop" }}

]
}
